<?xml version="1.0" encoding="utf-8"?>
<!-- Generator: Adobe Illustrator 22.0.0, SVG Export Plug-In . SVG Version: 6.00 Build 0)  -->
<svg version="1.1" id="Layer_1" xmlns="http://www.w3.org/2000/svg" xmlns:xlink="http://www.w3.org/1999/xlink" x="0px" y="0px"
	 viewBox="0 0 256 256" style="enable-background:new 0 0 256 256;" xml:space="preserve">
<style type="text/css">
	.st0{fill:#00A651;}
	.st1{fill:#007136;}
	.st2{fill:#F9F9F9;}
	.st3{fill:#E14045;}
	.st4{fill:#B43337;}
</style>
<g>
	<circle class="st3" cx="128" cy="128" r="128"/>
	<path class="st4" d="M256,128c0-1.6,0-3.1-0.1-4.6L155,57.5L71.4,69v121.4l69.9,64.9C205.8,248.6,256,194.2,256,128z"/>
	<g>
		<g>
			<path class="st2" d="M60.6,65c0.5-5.8,4.9-9.8,10.7-9.8c34.5,0,68.9,0,103.4,0c6.1,0,10.7,4.5,10.7,10.6c0,13.7,0,27.4,0,41.1
				c0,6.1-4.8,10.8-10.8,10.6c-5.2-0.2-9.7-4.5-9.9-9.8c-0.4-8.7-0.1-17.5-0.2-26.2c0-1.6,0-3.1,0-4.7c0-0.4-0.1-0.7-0.6-0.6
				c-0.1,0-0.3,0-0.4,0c-27,0-54,0-81,0c-1,0-1,0-1,1c0,30.5,0,60.9,0,91.4c0,0.8,0.2,0.9,0.9,0.9c13.5,0,27,0,40.5,0
				c5.2,0,9.3,3.4,10.4,8.5c1.2,6.2-3.6,12.2-9.9,12.3c-5.1,0.1-10.2,0-15.4,0c-12.2,0-24.4,0-36.5,0c-5.8,0-10-3.7-10.8-9.5
				c0-0.1,0-0.3-0.2-0.3c0-0.1,0-0.2,0-0.3c0.2-0.3,0.1-0.6,0.1-0.9c0-37.8,0-75.6,0-113.3C60.6,65.7,60.5,65.3,60.6,65z"/>
			<path class="st2" d="M123,107.2c-8.6,0-17.2,0-25.8,0c-2.6,0-4.6-1.6-5.2-4.1c-0.7-3.1,1.6-6.1,4.7-6.3c0.2,0,0.4,0,0.6,0
				c17.1,0,34.3,0,51.4,0c2.5,0,4.5,1.3,5.2,3.5c1.1,3.4-1.4,6.8-5,6.9c-6.7,0-13.5,0-20.2,0C126.8,107.2,124.9,107.2,123,107.2z"/>
			<path class="st2" d="M112.6,117.6c5.7,0,11.5,0,17.2,0c1.8,0,3.2,1.8,3.5,4.4c0.3,3-1.2,5.8-3.2,6c-0.1,0-0.3,0-0.4,0
				c-11.4,0-22.9,0-34.3,0c-1.7,0-3.1-1.5-3.5-3.8c-0.6-3.3,1-6.5,3.3-6.5c3.1,0,6.2,0,9.3,0C107.2,117.6,109.9,117.6,112.6,117.6z"
				/>
			<path class="st2" d="M112.6,138.4c5.2,0,10.3,0,15.5,0c2.7,0,4.7,1.8,5.2,4.4c0.5,3-1.8,5.9-4.9,6c-1.1,0-2.1,0-3.2,0
				c-9.3,0-18.7,0-28,0c-2.5,0-4.6-1.5-5.2-3.8c-0.9-3.3,1.6-6.5,5-6.5C102.2,138.4,107.4,138.4,112.6,138.4z"/>
		</g>
		<path class="st2" d="M187.9,159.8l14.1-14.1c4.1-4.1,4.1-10.6,0-14.7c-4.1-4.1-10.6-4.1-14.7,0l-14.1,14.1L159.1,131
			c-4.1-4.1-10.6-4.1-14.7,0c-4.1,4.1-4.1,10.6,0,14.7l14.1,14.1l-14.1,14.1c-4.1,4.1-4.1,10.6,0,14.7c4.1,4.1,10.6,4.1,14.7,0
			l14.1-14.1l14.1,14.1c4.1,4.1,10.6,4.1,14.7,0c4.1-4.1,4.1-10.6,0-14.7L187.9,159.8z"/>
	</g>
</g>
</svg>
